module gitlab.com/david-kalmakoff/backup-helper

go 1.21.1

require github.com/spf13/cobra v1.7.0

require (
	github.com/inconshreveable/mousetrap v1.1.0 // indirect
	github.com/spf13/pflag v1.0.5 // indirect
)
